{
  "project_info": {
    "project_number": "289532862494",
    "project_id": "toysandshare",
    "storage_bucket": "toysandshare.appspot.com"
  },
  "client": [
    {
      "client_info": {
        "mobilesdk_app_id": "1:289532862494:android:5b215010bee60683b68e0f",
        "android_client_info": {
          "package_name": "com.itb.toysandshareapp"
        }
      },
      "oauth_client": [
        {
          "client_id": "289532862494-bre8nofoo96maltn0b7unn4g9igji3so.apps.googleusercontent.com",
          "client_type": 3
        }
      ],
      "api_key": [
        {
          "current_key": "AIzaSyDLtRSPplXvsBvMdkeiLxz0lB9njfZpri8"
        }
      ],
      "services": {
        "appinvite_service": {
          "other_platform_oauth_client": [
            {
              "client_id": "289532862494-bre8nofoo96maltn0b7unn4g9igji3so.apps.googleusercontent.com",
              "client_type": 3
            }
          ]
        }
      }
    }
  ],
  "configuration_version": "1"
}